<?xml version="1.0" encoding="iso-8859-1"?>
<!-- Generator: Adobe Illustrator 19.0.0, SVG Export Plug-In . SVG Version: 6.00 Build 0)  -->
<svg xmlns="http://www.w3.org/2000/svg" xmlns:xlink="http://www.w3.org/1999/xlink" version="1.1" id="Layer_1" x="0px" y="0px" viewBox="0 0 512 512" style="enable-background:new 0 0 512 512;" xml:space="preserve" width="512" height="512">
<g>
	<g>
		<path style="fill:#CDBFBA;" d="M354.774,214.813L271,166.136l18.34-13.564c42.07-31.143,77.432-71.448,105.103-115.862    l22.822-36.621l4.819,43.891c6.797,60.527-14.766,120.604-59.15,163.041L354.774,214.813z"/>
	</g>
	<g>
		<path style="fill:#EFE2DD;" d="M185.028,231.805l-11.602-8.643c-55.708-41.602-85.708-110.834-78.252-179.081L99.877,0    l22.939,36.768c27.832,44.619,63.354,85.042,105.601,116.199L241,162.254L185.028,231.805z"/>
	</g>
	<path style="fill:#3C1B13;" d="M370.771,174.529l28.359,69.067C493.88,241.779,504.523,141.861,512,129.31   C509,129.307,417.379,87.208,370.771,174.529z"/>
	<path style="fill:#663325;" d="M0,133.528c8.554,14.4,16.879,111.763,112.108,114.272l28.081-71.074   C92.915,92.611,3.006,133.512,0,133.528z"/>
	<path style="fill:#8C4A37;" d="M160.6,142.099c-9,4.801-17.401,10.801-24.901,17.701c-26.7,23.699-43.799,57.299-44.7,93.6   c-0.901,45,15.901,87.299,47.401,119.099C146.904,381.411,151,393.187,151,403.7V452l102.001-64.501l7.399-169.698L160.6,142.099z"/>
	<path style="fill:#663325;" d="M379.3,160.699l-0.3-0.298c-7.5-6.601-16.199-12.301-25.8-17.1l-117.92,53.666l26.42,220.532   L361,452v-48.3c0-8.948,4.402-23.002,12.9-31.5C404.2,341.3,421,300.5,421,257C421,217.4,406.601,184.1,379.3,160.699z"/>
	<path style="fill:#663325;" d="M361,452c0,33.3-27.001,59.7-59.7,60c0,0-22.2,0-45.3,0h-45c-32.999,0-60-27.001-60-60   c0-4.2-0.3,0.3,0.901-9.6c3.898-27.599,22.5-36.301,41.1-54.901c22.2-22.2,34.499-51.599,34.499-82.798   c0-62.401-24.6-120-66.899-162.601C175,134.001,191.499,128,208.9,125.6c16.199-2.401,32.1-3.6,47.1-3.6   c37.2,0,70.499,7.5,97.2,21.301c-41.7,42.299-65.7,99.6-65.7,161.4c0,30.899,12.301,60.899,34.2,82.798   c21.899,21.901,34.799,31.8,38.399,54.901C361.3,452,361,446.901,361,452z"/>
	<path style="fill:#3C1B13;" d="M361,452c0,33.3-27.001,59.7-59.7,60c0,0-22.2,0-45.3,0V122c37.2,0,70.499,7.5,97.2,21.301   c-41.7,42.299-65.7,99.6-65.7,161.4c0,30.899,12.301,60.899,34.2,82.798c21.899,21.901,34.799,31.8,38.399,54.901   C361.3,452,361,446.901,361,452z"/>
	<rect x="151" y="272" style="fill:#663325;" width="30" height="30"/>
	<rect x="331" y="272" style="fill:#3C1B13;" width="30" height="30"/>
	<rect x="211" y="437" style="fill:#8C4A37;" width="30" height="30"/>
	<rect x="271" y="437" style="fill:#663325;" width="30" height="30"/>
</g>















</svg>
